Causal Modeling in R: Whole Game
…
class: middle, center, inverse

# **Do people who quit smoking gain weight?**

---

```r
library(causaldata)
nhefs_complete_uc <- nhefs_complete %>% 
  filter(censored == 0)
nhefs_complete_uc
```

```
## # A tibble: 1,566 × 67
##     seqn  qsmk death yrdth modth dadth   sbp   dbp sex  
##    <dbl> <dbl> <dbl> <dbl> <dbl> <dbl> <dbl> <dbl> <fct>
##  1   233     0     0    NA    NA    NA   175    96 0    
##  2   235     0     0    NA    NA    NA   123    80 0    
##  3   244     0     0    NA    NA    NA   115    75 1    
##  4   245     0     1    85     2    14   148    78 0    
##  5   252     0     0    NA    NA    NA   118    77 0    
##  6   257     0     0    NA    NA    NA   141    83 1    
##  7   262     0     0    NA    NA    NA   132    69 1    
##  8   266     0     0    NA    NA    NA   100    53 1    
##  9   419     0     1    84    10    13   163    79 0    
## 10   420     0     1    86    10    17   184   106 0    
## # … with 1,556 more rows, and 58 more variables: age <dbl>,
## #   race <fct>, income <dbl>, marital <dbl>, school <dbl>,
## #   education <fct>, …
```
…
