Causal Inference with group_by and summarise
…
sim

Simulation

# A tibble: 1,000 × 3
   confounder exposure outcome
        <int>    <int>   <dbl>
 1          0        0  1.13  
 2          0        0  1.11  
 3          1        1  0.129 
 4          1        0  1.21  
 5          0        0  0.0694
 6          1        1 -0.663 
 7          1        1  1.81  
 8          1        1 -0.912 
 9          1        0 -0.247 
10          0        0  0.998 
# ℹ 990 more rows
…
sim2

Simulation

# A tibble: 1,000 × 4
   confounder_1 confounder_2 exposure outcome
          <int>        <int>    <int>   <dbl>
 1            0            0        0   0.521
 2            1            0        0   1.38 
 3            0            0        0  -0.624
 4            0            1        1   0.427
 5            1            0        1   1.31 
 6            0            0        0  -0.707
 7            1            1        1   2.52 
 8            1            0        0   1.45 
 9            0            0        0  -0.505
10            0            1        1   0.793
# ℹ 990 more rows
…
big_sim2

Simulation

# A tibble: 100,000 × 4
   confounder_1 confounder_2 exposure outcome
          <int>        <int>    <int>   <dbl>
 1            1            1        1   2.35 
 2            1            1        0   3.71 
 3            0            0        0   2.08 
 4            0            1        1   0.516
 5            0            0        0  -0.166
 6            1            1        1   1.58 
 7            0            0        0   0.472
 8            1            0        0   3.22 
 9            0            1        1   0.929
10            0            1        1   1.41 
# ℹ 99,990 more rows
…
Simulation

n <- 10000 
sim3 <- tibble(
  confounder = rnorm(n), 
  p_exposure = exp(confounder) / (1 + exp(confounder)),
  exposure = rbinom(n, 1, p_exposure),
  outcome = confounder + rnorm(n) 
) |> select(-p_exposure)

sim3

Simulation

# A tibble: 10,000 × 3
   confounder exposure outcome
        <dbl>    <int>   <dbl>
 1     -0.167        0  -0.560
 2      0.252        1   0.628
 3     -0.321        1  -0.608
 4      0.621        0   1.58 
 5     -0.619        1   0.358
 6     -0.897        0  -1.95 
 7     -2.01         0  -2.50 
 8      0.296        0  -1.10 
 9     -0.504        1  -0.316
10     -0.536        1   1.12 
# ℹ 9,990 more rows
…
