Causal Diagrams in R
…
cancer ~ coffee + addictive
cancer ~ coffee + smoking

Let’s prove it!

set.seed(1234)
dag_data <- coffee_cancer_dag |> 
  simulate_data(-.6)

Let’s prove it!

dag_data

# A tibble: 500 × 4
   addictive  cancer coffee smoking
       <dbl>   <dbl>  <dbl>   <dbl>
 1    0.0708  2.87   -0.565 -1.79  
 2    0.626   1.63    0.434 -1.35  
 3    1.98    1.43   -0.182 -1.62  
 4   -0.198  -0.223   0.133  0.960 
 5    1.66    0.0696  0.437  0.0954
 6    1.37    0.765  -2.18  -1.41  
 7    0.791   0.0460 -0.745 -0.876 
 8    0.531   0.813  -1.44  -0.432 
 9   -0.861   0.708   0.415  0.220 
10   -1.40    0.801   0.439  0.472 
# ℹ 490 more rows
…
