Causal inference is not just a statistics problem
…
(3) Mediator
Direct effect: Y ~ X ; Z Total Effect: Y ~ X
Direct effect: 0.0 Total effect: 1.0

(4) M-Bias
Y ~ X
1.0

D’Agostino McGowan L, Gerke T, Barrett M (2023). Causal inference is not a statistical problem. Preprint arXiv:2304.02683v1.

The partial solution

causal_collider_time

# A tibble: 100 × 6
   exposure_baseline outcome_baseline covariate_baseline
               <dbl>            <dbl>              <dbl>
 1          -1.43              0.287             -0.0963
 2           0.0593           -0.978             -1.11  
 3           0.370             0.348              0.647 
 4           0.00471           0.851              0.755 
 5           0.340             1.94               1.19  
 6          -3.61             -0.235             -0.588 
 7           1.44             -0.827             -1.13  
 8           1.02             -0.0410             0.689 
 9          -2.43             -2.10              -1.49  
10          -1.26             -2.41              -2.78  
# ℹ 90 more rows
# ℹ 3 more variables: exposure_followup <dbl>,
#   outcome_followup <dbl>, covariate_followup <dbl>
…
