Using Propensity Scores
…
A `matchit` object
 - method: 1:1 nearest neighbor matching without replacement
 - distance: Propensity score
             - estimated with logistic regression
 - number of obs.: 1566 (original), 806 (matched)
 - target estimand: ATT
 - covariates: sex, race, age, I(age^2), education, smokeintensity, I(smokeintensity^2), smokeyrs, I(smokeyrs^2), exercise, active, wt71, I(wt71^2)

Matching in R (ATT)

matched_data <- get_matches(m, id = "i")
as_tibble(matched_data)

# A tibble: 806 × 71
   i     subclass weights  seqn  qsmk death yrdth modth
   <chr> <fct>      <dbl> <dbl> <dbl> <dbl> <dbl> <dbl>
 1 11    1              1   428     1     0    NA    NA
 2 1220  1              1 23045     0     0    NA    NA
 3 15    2              1   446     1     1    88     1
 4 1082  2              1 22294     0     0    NA    NA
 5 18    3              1   596     1     0    NA    NA
 6 534   3              1 14088     0     0    NA    NA
 7 23    4              1   618     1     0    NA    NA
 8 697   4              1 18085     0     0    NA    NA
 9 27    5              1   806     1     0    NA    NA
10 879   5              1 21128     0     0    NA    NA
# ℹ 796 more rows
# ℹ 63 more variables: dadth <dbl>, sbp <dbl>, dbp <dbl>,
#   sex <fct>, age <dbl>, race <fct>, …
…
             - estimated with logistic regression and linearized
 - caliper: <distance> (0.063)
 - number of obs.: 1566 (original), 780 (matched)
 - target estimand: ATT
 - covariates: sex, race, age, I(age^2), education, smokeintensity, I(smokeintensity^2), smokeyrs, I(smokeyrs^2), exercise, active, wt71, I(wt71^2)

Matching in R (ATM)

matched_data <- get_matches(m, id = "i")
as_tibble(matched_data)

# A tibble: 780 × 71
   i     subclass weights  seqn  qsmk death yrdth modth
   <chr> <fct>      <dbl> <dbl> <dbl> <dbl> <dbl> <dbl>
 1 11    1              1   428     1     0    NA    NA
 2 1220  1              1 23045     0     0    NA    NA
 3 15    2              1   446     1     1    88     1
 4 1082  2              1 22294     0     0    NA    NA
 5 18    3              1   596     1     0    NA    NA
 6 534   3              1 14088     0     0    NA    NA
 7 23    4              1   618     1     0    NA    NA
 8 697   4              1 18085     0     0    NA    NA
 9 27    5              1   806     1     0    NA    NA
10 879   5              1 21128     0     0    NA    NA
# ℹ 770 more rows
# ℹ 63 more variables: dadth <dbl>, sbp <dbl>, dbp <dbl>,
#   sex <fct>, age <dbl>, race <fct>, …
…
