Propensity scores for continuous exposures
…
---

## 2. Calculate the weights with `dnorm()`

```r
nhefs_denominators
```

```
## # A tibble: 1,162 × 2
##       id denominator
##    <int>       <dbl>
##  1     2      0.0265
##  2     3      0.0275
##  3     4      0.0314
##  4     5      0.0371
##  5     6      0.0262
##  6     7      0.0364
##  7     8      0.0381
##  8     9      0.0386
##  9    10      0.0129
## 10    13      0.0386
## # … with 1,152 more rows
```
…
