Fitting the outcome model
…
library(rsample)

# fit ipw model to bootstrapped samples
bootstrapped_nhefs <- bootstraps(
  nhefs_complete_uc, 
  times = 1000, 
  apparent = TRUE
)

bootstrapped_nhefs

2. Use {rsample} to bootstrap our causal effect

# Bootstrap sampling with apparent sample 
# A tibble: 1,001 × 2
   splits             id           
   <list>             <chr>        
 1 <split [1566/575]> Bootstrap0001
 2 <split [1566/575]> Bootstrap0002
 3 <split [1566/583]> Bootstrap0003
 4 <split [1566/573]> Bootstrap0004
 5 <split [1566/549]> Bootstrap0005
 6 <split [1566/570]> Bootstrap0006
 7 <split [1566/589]> Bootstrap0007
 8 <split [1566/567]> Bootstrap0008
 9 <split [1566/563]> Bootstrap0009
10 <split [1566/586]> Bootstrap0010
# ℹ 991 more rows
…
2. Use {rsample} to bootstrap our causal effect

ipw_results <- bootstrapped_nhefs |> 
  mutate(boot_fits = map(splits, fit_ipw)) 

ipw_results

2. Use {rsample} to bootstrap our causal effect

# Bootstrap sampling with apparent sample 
# A tibble: 1,001 × 3
   splits             id            boot_fits       
   <list>             <chr>         <list>          
 1 <split [1566/564]> Bootstrap0001 <tibble [2 × 5]>
 2 <split [1566/573]> Bootstrap0002 <tibble [2 × 5]>
 3 <split [1566/575]> Bootstrap0003 <tibble [2 × 5]>
 4 <split [1566/586]> Bootstrap0004 <tibble [2 × 5]>
 5 <split [1566/592]> Bootstrap0005 <tibble [2 × 5]>
 6 <split [1566/585]> Bootstrap0006 <tibble [2 × 5]>
 7 <split [1566/551]> Bootstrap0007 <tibble [2 × 5]>
 8 <split [1566/584]> Bootstrap0008 <tibble [2 × 5]>
 9 <split [1566/588]> Bootstrap0009 <tibble [2 × 5]>
10 <split [1566/567]> Bootstrap0010 <tibble [2 × 5]>
# ℹ 991 more rows
…
