Whole Game 2: Malaria and Mosquito Nets
…
class: middle, center, inverse

# **Does mosquito bed net use reduce malaria risk?**

---

# The Data

```r
library(causalworkshop)
net_data
```

```
## # A tibble: 1,752 × 10
##       id net   net_num malar…¹ income health house…² eligi…³
##    <dbl> <lgl>   <dbl>   <dbl>  <dbl>  <dbl>   <dbl> <lgl>  
##  1     1 TRUE        1      33    781     56       2 FALSE  
##  2     2 FALSE       0      42    974     57       4 FALSE  
##  3     3 FALSE       0      80    502     15       3 FALSE  
##  4     4 TRUE        1      34    671     20       5 TRUE   
##  5     5 FALSE       0      44    728     17       5 FALSE  
##  6     6 FALSE       0      25   1050     48       1 FALSE  
##  7     7 TRUE        1      19   1146     65       3 FALSE  
##  8     8 FALSE       0      35   1093     75       5 FALSE  
##  9     9 FALSE       0      32   1037     60       3 FALSE  
## 10    10 FALSE       0      40    828     36       3 FALSE  
## # … with 1,742 more rows, 2 more variables:
## #   temperature <dbl>, resistance <dbl>, and abbreviated
## #   variable names ¹​malaria_risk, ²​household, ³​eligible
## # ℹ Use `print(n = ...)` to see more rows, and `colnames()` to see all variable names
```
…
